<?xml version="1.0" encoding="UTF-8" standalone="no"?>
<!-- Created with Inkscape (http://www.inkscape.org/) -->

<svg
   xmlns:dc="http://purl.org/dc/elements/1.1/"
   xmlns:cc="http://creativecommons.org/ns#"
   xmlns:rdf="http://www.w3.org/1999/02/22-rdf-syntax-ns#"
   xmlns:svg="http://www.w3.org/2000/svg"
   xmlns="http://www.w3.org/2000/svg"
   xmlns:sodipodi="http://sodipodi.sourceforge.net/DTD/sodipodi-0.dtd"
   xmlns:inkscape="http://www.inkscape.org/namespaces/inkscape"
   width="1024"
   height="1024"
   viewBox="0 0 270.93333 270.93334"
   version="1.1"
   id="svg8"
   sodipodi:docname="Buttons.svg"
   inkscape:export-filename="/home/frode/Creations/Games/AmazingUrho/Resources/Textures/Buttons.png"
   inkscape:export-xdpi="96"
   inkscape:export-ydpi="96"
   inkscape:version="0.92.3 (2405546, 2018-03-11)">
  <defs
     id="defs2" />
  <sodipodi:namedview
     id="base"
     pagecolor="#9b8361"
     bordercolor="#666666"
     borderopacity="1.0"
     inkscape:pageopacity="0"
     inkscape:pageshadow="2"
     inkscape:zoom="0.25627694"
     inkscape:cx="306.9327"
     inkscape:cy="366.71705"
     inkscape:document-units="mm"
     inkscape:current-layer="layer1"
     showgrid="false"
     inkscape:snap-global="false"
     units="px"
     showguides="true"
     inkscape:guide-bbox="true"
     inkscape:window-width="1920"
     inkscape:window-height="1061"
     inkscape:window-x="0"
     inkscape:window-y="0"
     inkscape:window-maximized="1">
    <sodipodi:guide
       position="0,67.733334"
       orientation="0,1"
       id="guide918"
       inkscape:locked="false"
       inkscape:label=""
       inkscape:color="rgb(0,0,255)" />
    <sodipodi:guide
       position="0,135.46667"
       orientation="0,1"
       id="guide920"
       inkscape:locked="false"
       inkscape:label=""
       inkscape:color="rgb(0,0,255)" />
    <sodipodi:guide
       position="0,203.2"
       orientation="0,1"
       id="guide922"
       inkscape:locked="false"
       inkscape:label=""
       inkscape:color="rgb(0,0,255)" />
  </sodipodi:namedview>
  <metadata
     id="metadata5">
    <rdf:RDF>
      <cc:Work
         rdf:about="">
        <dc:format>image/svg+xml</dc:format>
        <dc:type
           rdf:resource="http://purl.org/dc/dcmitype/StillImage" />
        <dc:title></dc:title>
      </cc:Work>
    </rdf:RDF>
  </metadata>
  <g
     inkscape:label="Layer 1"
     inkscape:groupmode="layer"
     id="layer1"
     transform="translate(0,-26.06665)">
    <g
       id="g901"
       transform="matrix(1.2245605,0,0,1.2249138,11.744608,-37.690041)"
       style="stroke-width:0.81650174">
      <path
         sodipodi:nodetypes="ccszcccssccccccccc"
         inkscape:connector-curvature="0"
         id="path815"
         d="m 47.806791,61.576806 v 5.263771 h 5.726252 c 2.145169,0 4.141419,1.333632 4.141419,6.092533 0,4.758902 -2.828416,5.602389 -4.254178,5.602389 h -5.613493 v 5.105661 h 8.956653 c 1.938468,0 7.107741,-1.739822 7.107741,-11.625312 0,-9.885479 -7.560127,-10.439042 -7.560127,-10.439042 z m -2.997275,0.02801 -10.080042,0.0807 2.77853,3.39016 -0.129307,30.51189 -1.744576,2.58312 h 9.175395 z"
         style="color:#000000;clip-rule:nonzero;display:inline;overflow:visible;visibility:visible;opacity:1;isolation:auto;mix-blend-mode:normal;color-interpolation:sRGB;color-interpolation-filters:linearRGB;solid-color:#000000;solid-opacity:1;vector-effect:none;fill:#54b300;fill-opacity:1;fill-rule:nonzero;stroke:#c6f300;stroke-width:1.0801636;stroke-linecap:round;stroke-linejoin:round;stroke-miterlimit:4;stroke-dasharray:none;stroke-dashoffset:0;stroke-opacity:1;marker:none;color-rendering:auto;image-rendering:auto;shape-rendering:auto;text-rendering:auto;enable-background:accumulate" />
      <path
         sodipodi:nodetypes="ccccccccccccc"
         inkscape:connector-curvature="0"
         id="path819"
         d="m 78.188907,61.504961 c 0,0 -9.433885,0.0807 -10.080042,0.0807 0,0 2.390713,3.06728 2.778405,3.39016 0.387694,0.32288 4.6e-5,29.7047 -0.129183,30.51189 -0.129232,0.8072 -1.744576,2.58312 -1.744576,2.58312 h 9.175396 z m 16.073248,29.09462 -2.743351,2.46173 H 80.94127 v 5.18122 h 13.313125 z"
         style="color:#000000;clip-rule:nonzero;display:inline;overflow:visible;visibility:visible;opacity:1;isolation:auto;mix-blend-mode:normal;color-interpolation:sRGB;color-interpolation-filters:linearRGB;solid-color:#000000;solid-opacity:1;vector-effect:none;fill:#54b300;fill-opacity:1;fill-rule:nonzero;stroke:#c6f300;stroke-width:1.08016372;stroke-linecap:round;stroke-linejoin:round;stroke-miterlimit:4;stroke-dasharray:none;stroke-dashoffset:0;stroke-opacity:1;marker:none;color-rendering:auto;image-rendering:auto;shape-rendering:auto;text-rendering:auto;enable-background:accumulate" />
      <path
         sodipodi:nodetypes="cccccccccccccccc"
         inkscape:connector-curvature="0"
         id="path823"
         d="m 122.3124,62.720561 10.11439,32.9993 2.00745,2.95641 h -9.63571 l -4.41638,-17.42171 h -4.38928 l 1.3217,-3.719 h 2.26461 l -0.72877,-3.50166 z m -2.53248,-1.64934 -11.43708,36.84957 -9.440296,0.10559 2.208176,-2.53407 11.8439,-34.42108 z"
         style="color:#000000;clip-rule:nonzero;display:inline;overflow:visible;visibility:visible;opacity:1;isolation:auto;mix-blend-mode:normal;color-interpolation:sRGB;color-interpolation-filters:linearRGB;solid-color:#000000;solid-opacity:1;vector-effect:none;fill:#54b300;fill-opacity:1;fill-rule:nonzero;stroke:#c6f300;stroke-width:1.08016372;stroke-linecap:round;stroke-linejoin:round;stroke-miterlimit:4;stroke-dasharray:none;stroke-dashoffset:0;stroke-opacity:1;marker:none;color-rendering:auto;image-rendering:auto;shape-rendering:auto;text-rendering:auto;enable-background:accumulate" />
      <path
         style="color:#000000;clip-rule:nonzero;display:inline;overflow:visible;visibility:visible;opacity:1;isolation:auto;mix-blend-mode:normal;color-interpolation:sRGB;color-interpolation-filters:linearRGB;solid-color:#000000;solid-opacity:1;vector-effect:none;fill:#54b300;fill-opacity:1;fill-rule:nonzero;stroke:#c6f300;stroke-width:1.08016372;stroke-linecap:round;stroke-linejoin:round;stroke-miterlimit:4;stroke-dasharray:none;stroke-dashoffset:0;stroke-opacity:1;marker:none;color-rendering:auto;image-rendering:auto;shape-rendering:auto;text-rendering:auto;enable-background:accumulate"
         d="m 135.59438,65.240261 -3.74244,-4.16904 h 9.63571 l 7.67852,12.68144 -3.55145,7.6876 z m 3.96223,33.43601 2.60303,-3.22598 15.17378,-33.62358 10.00484,-0.10559 -3.37891,2.86479 -14.48883,34.09036 z"
         id="path825"
         inkscape:connector-curvature="0"
         sodipodi:nodetypes="ccccccccccccc" />
    </g>
    <g
       id="g916"
       transform="matrix(1.2245605,0,0,1.2249138,12.755567,-43.60229)"
       style="stroke-width:0.81650174">
      <path
         sodipodi:nodetypes="cccccccccccccccccccccccccc"
         inkscape:connector-curvature="0"
         id="path830"
         d="m 47.162947,176.4144 -10.080006,0.0806 2.778125,3.38997 -0.12919,30.51183 -1.744597,2.58331 h 9.175668 z m 2.572968,0 v 5.18108 h 10.756968 l 2.735233,2.42517 v -7.60624 z m 0,15.96595 v 5.11028 h 7.38869 v -5.11028 z m 13.499951,13.1284 -0.0078,0.0367 -2.735234,2.42517 H 49.735915 v 5.18107 h 13.492199 l 0.0078,-7.64293 z"
         style="color:#000000;clip-rule:nonzero;display:inline;overflow:visible;visibility:visible;opacity:1;isolation:auto;mix-blend-mode:normal;color-interpolation:sRGB;color-interpolation-filters:linearRGB;solid-color:#000000;solid-opacity:1;vector-effect:none;fill:#54b300;fill-opacity:1;fill-rule:nonzero;stroke:#c6f300;stroke-width:1.08016372;stroke-linecap:round;stroke-linejoin:round;stroke-miterlimit:4;stroke-dasharray:none;stroke-dashoffset:0;stroke-opacity:1;marker:none;color-rendering:auto;image-rendering:auto;shape-rendering:auto;text-rendering:auto;enable-background:accumulate" />
      <path
         sodipodi:nodetypes="ccccccccccccccccccc"
         inkscape:connector-curvature="0"
         id="path838"
         d="m 69.977565,176.49683 3.312642,3.66747 6.845927,12.65776 3.874479,-7.08949 -5.109205,-9.23574 z m 32.303185,0.632 -10.019024,0.10284 -19.632395,32.70033 -3.030821,3.13726 h 9.914123 l 19.009174,-33.15455 z m -10.659488,19.6415 -3.585247,6.96923 5.315614,9.29157 h 8.963421 l -2.959676,-2.46971 z"
         style="color:#000000;clip-rule:nonzero;display:inline;overflow:visible;visibility:visible;opacity:1;isolation:auto;mix-blend-mode:normal;color-interpolation:sRGB;color-interpolation-filters:linearRGB;solid-color:#000000;solid-opacity:1;vector-effect:none;fill:#54b300;fill-opacity:1;fill-rule:nonzero;stroke:#c6f300;stroke-width:1.08016372;stroke-linecap:round;stroke-linejoin:round;stroke-miterlimit:4;stroke-dasharray:none;stroke-dashoffset:0;stroke-opacity:1;marker:none;color-rendering:auto;image-rendering:auto;shape-rendering:auto;text-rendering:auto;enable-background:accumulate" />
      <path
         style="color:#000000;clip-rule:nonzero;display:inline;overflow:visible;visibility:visible;opacity:1;isolation:auto;mix-blend-mode:normal;color-interpolation:sRGB;color-interpolation-filters:linearRGB;solid-color:#000000;solid-opacity:1;vector-effect:none;fill:#54b300;fill-opacity:1;fill-rule:nonzero;stroke:#c6f300;stroke-width:1.08016372;stroke-linecap:round;stroke-linejoin:round;stroke-miterlimit:4;stroke-dasharray:none;stroke-dashoffset:0;stroke-opacity:1;marker:none;color-rendering:auto;image-rendering:auto;shape-rendering:auto;text-rendering:auto;enable-background:accumulate"
         d="m 124.41783,176.63707 -13.17726,0.08 2.77814,3.36459 -0.12919,30.28339 -1.74461,2.56397 h 12.27292 l -3.09724,-2.92874 v -30.22813 z"
         id="path843"
         inkscape:connector-curvature="0"
         sodipodi:nodetypes="ccccccccc" />
      <path
         style="color:#000000;clip-rule:nonzero;display:inline;overflow:visible;visibility:visible;opacity:1;isolation:auto;mix-blend-mode:normal;color-interpolation:sRGB;color-interpolation-filters:linearRGB;solid-color:#000000;solid-opacity:1;vector-effect:none;fill:#54b300;fill-opacity:1;fill-rule:nonzero;stroke:#c6f300;stroke-width:1.08016372;stroke-linecap:round;stroke-linejoin:round;stroke-miterlimit:4;stroke-dasharray:none;stroke-dashoffset:0;stroke-opacity:1;marker:none;color-rendering:auto;image-rendering:auto;shape-rendering:auto;text-rendering:auto;enable-background:accumulate"
         d="m 151.58789,184.39182 h -7.30188 l -0.12919,25.76814 -1.7446,2.58331 h 10.36196 l -1.18629,-2.53152 z m -17.54062,-7.569 -0.094,6.91489 3.07699,-1.73381 h 23.81527 l 2.48801,2.42517 v -7.60624 z"
         id="path845"
         inkscape:connector-curvature="0"
         sodipodi:nodetypes="cccccccccccccc" />
    </g>
    <g
       id="g910"
       transform="matrix(1.2245605,0,0,1.2249138,20.407565,-43.175397)"
       style="stroke-width:0.81650174">
      <path
         sodipodi:nodetypes="cccccccccccccc"
         inkscape:connector-curvature="0"
         id="path867"
         d="m 160.40767,129.79169 h -7.30188 l -0.12919,25.76814 -1.7446,2.58331 h 10.36196 l -1.18629,-2.53152 z m -17.54062,-7.569 -0.094,6.91489 3.07699,-1.73381 h 23.81527 l 2.48801,2.42517 v -7.60624 z"
         style="color:#000000;clip-rule:nonzero;display:inline;overflow:visible;visibility:visible;opacity:1;isolation:auto;mix-blend-mode:normal;color-interpolation:sRGB;color-interpolation-filters:linearRGB;solid-color:#000000;solid-opacity:1;vector-effect:none;fill:#54b300;fill-opacity:1;fill-rule:nonzero;stroke:#c6f300;stroke-width:1.08016372;stroke-linecap:round;stroke-linejoin:round;stroke-miterlimit:4;stroke-dasharray:none;stroke-dashoffset:0;stroke-opacity:1;marker:none;color-rendering:auto;image-rendering:auto;shape-rendering:auto;text-rendering:auto;enable-background:accumulate" />
      <path
         style="color:#000000;clip-rule:nonzero;display:inline;overflow:visible;visibility:visible;opacity:1;isolation:auto;mix-blend-mode:normal;color-interpolation:sRGB;color-interpolation-filters:linearRGB;solid-color:#000000;solid-opacity:1;vector-effect:none;fill:#54b300;fill-opacity:1;fill-rule:nonzero;stroke:#c6f300;stroke-width:1.08016372;stroke-linecap:round;stroke-linejoin:round;stroke-miterlimit:4;stroke-dasharray:none;stroke-dashoffset:0;stroke-opacity:1;marker:none;color-rendering:auto;image-rendering:auto;shape-rendering:auto;text-rendering:auto;enable-background:accumulate"
         d="m 185.92724,121.81427 -10.08,0.0806 2.77812,3.38997 -0.12919,30.51183 -1.74459,2.58331 h 9.17566 z m 2.57297,0 v 5.18108 h 10.75697 l 2.73523,2.42517 v -7.60624 z m 0,15.96595 v 5.11028 h 7.38869 v -5.11028 z m 13.49995,13.1284 -0.008,0.0367 -2.73523,2.42517 h -10.75692 v 5.18107 h 13.4922 l 0.008,-7.64293 z"
         id="path869"
         inkscape:connector-curvature="0"
         sodipodi:nodetypes="cccccccccccccccccccccccccc" />
      <path
         sodipodi:nodetypes="cccccccccccccccccccccccccc"
         inkscape:connector-curvature="0"
         id="path871"
         d="m 122.41504,121.81427 -10.08,0.0806 2.77812,3.38997 -0.12919,30.51183 -1.74459,2.58331 h 9.17566 z m 2.57297,0 v 5.18108 h 10.75697 l 2.73522,2.42517 v -7.60624 z m 0,15.96595 v 5.11028 h 7.38869 v -5.11028 z m 13.49994,13.1284 -0.008,0.0367 -2.73522,2.42517 h -10.75692 v 5.18107 H 138.48 l 0.008,-7.64293 z"
         style="color:#000000;clip-rule:nonzero;display:inline;overflow:visible;visibility:visible;opacity:1;isolation:auto;mix-blend-mode:normal;color-interpolation:sRGB;color-interpolation-filters:linearRGB;solid-color:#000000;solid-opacity:1;vector-effect:none;fill:#54b300;fill-opacity:1;fill-rule:nonzero;stroke:#c6f300;stroke-width:1.08016372;stroke-linecap:round;stroke-linejoin:round;stroke-miterlimit:4;stroke-dasharray:none;stroke-dashoffset:0;stroke-opacity:1;marker:none;color-rendering:auto;image-rendering:auto;shape-rendering:auto;text-rendering:auto;enable-background:accumulate" />
      <path
         style="color:#000000;clip-rule:nonzero;display:inline;overflow:visible;visibility:visible;opacity:1;isolation:auto;mix-blend-mode:normal;color-interpolation:sRGB;color-interpolation-filters:linearRGB;solid-color:#000000;solid-opacity:1;vector-effect:none;fill:#54b300;fill-opacity:1;fill-rule:nonzero;stroke:#c6f300;stroke-width:1.0801636;stroke-linecap:round;stroke-linejoin:round;stroke-miterlimit:4;stroke-dasharray:none;stroke-dashoffset:0;stroke-opacity:1;marker:none;color-rendering:auto;image-rendering:auto;shape-rendering:auto;text-rendering:auto;enable-background:accumulate"
         d="m 93.474513,121.88598 v 5.26377 h 5.726252 c 2.145165,0 4.141415,1.33363 4.141415,6.09254 0,4.7589 -2.82841,5.60238 -4.254174,5.60238 h -5.613493 v 5.10567 h 8.956657 c 1.93846,0 7.10774,-1.73983 7.10774,-11.62532 0,-9.88548 -7.56013,-10.43904 -7.56013,-10.43904 z m -2.997275,0.028 -10.080042,0.0807 2.77853,3.39016 -0.129307,30.51189 -1.744576,2.58312 h 9.175395 z"
         id="path873"
         inkscape:connector-curvature="0"
         sodipodi:nodetypes="ccszcccssccccccccc" />
      <path
         sodipodi:nodetypes="cssccscccccsccsscc"
         inkscape:connector-curvature="0"
         id="path877"
         d="m 25.777485,121.66802 c 0,0 -9.918667,0.92887 -9.918667,17.51935 0,16.59049 8.022681,19.51043 9.560057,19.51043 h 2.890863 v -4.18062 c 0,0 -6.253882,-2.04877 -6.253882,-13.60641 0,-11.55762 6.253882,-14.79651 6.253882,-14.79651 v -4.44624 z m 5.30968,0 v 4.44624 c 0,0 6.254398,3.23889 6.254398,14.79651 0,11.55764 -6.254398,13.60641 -6.254398,13.60641 v 4.18062 h 2.891379 c 1.537376,0 9.559542,-2.91994 9.559542,-19.51043 0,-16.59048 -9.918561,-17.51935 -9.918561,-17.51935 z"
         style="color:#000000;clip-rule:nonzero;display:inline;overflow:visible;visibility:visible;opacity:1;isolation:auto;mix-blend-mode:normal;color-interpolation:sRGB;color-interpolation-filters:linearRGB;solid-color:#000000;solid-opacity:1;vector-effect:none;fill:#54b300;fill-opacity:1;fill-rule:nonzero;stroke:#c6f300;stroke-width:1.0801636;stroke-linecap:round;stroke-linejoin:round;stroke-miterlimit:4;stroke-dasharray:none;stroke-dashoffset:0;stroke-opacity:1;marker:none;color-rendering:auto;image-rendering:auto;shape-rendering:auto;text-rendering:auto;enable-background:accumulate" />
      <path
         inkscape:connector-curvature="0"
         id="path882"
         d="m 55.695307,121.90005 -10.080003,0.0806 2.778125,3.38997 -0.129191,30.51183 -1.744596,2.58331 h 9.175665 z m 12.574944,0 v 36.56573 h 9.175666 l -1.744597,-2.58331 -0.12919,-30.51183 2.778125,-3.38997 z m -10.344289,2.7333 v 8.45333 l 4.018576,3.81104 4.018575,-3.81104 v -8.45333 l -4.018575,4.22666 z"
         style="color:#000000;clip-rule:nonzero;display:inline;overflow:visible;visibility:visible;opacity:1;isolation:auto;mix-blend-mode:normal;color-interpolation:sRGB;color-interpolation-filters:linearRGB;solid-color:#000000;solid-opacity:1;vector-effect:none;fill:#54b300;fill-opacity:1;fill-rule:nonzero;stroke:#c6f300;stroke-width:1.08016372;stroke-linecap:round;stroke-linejoin:round;stroke-miterlimit:4;stroke-dasharray:none;stroke-dashoffset:0;stroke-opacity:1;marker:none;color-rendering:auto;image-rendering:auto;shape-rendering:auto;text-rendering:auto;enable-background:accumulate"
         sodipodi:nodetypes="ccccccccccccccccccccc" />
      <path
         inkscape:connector-curvature="0"
         id="path889"
         d="m -4.162424,121.66803 c 0,0 -9.918774,0.92886 -9.918774,17.51934 0,16.59049 8.0227635,19.51043 9.5601395,19.51043 h 2.8907798 v -4.18062 c 0,0 -6.2538819,-2.04876 -6.2538819,-13.6064 0,-11.55762 6.2538819,-14.79652 6.2538819,-14.79652 v -4.44623 z m 5.3097534,0 v 4.44623 c 0,0 1.8139537,0.94275 3.488159,3.61529 h 7.5158206 c -2.7523774,-7.52368 -8.4718345,-8.06152 -8.4718345,-8.06152 z m 4.0824381,28.96825 c -1.8062625,3.13089 -4.0824381,3.8809 -4.0824381,3.8809 v 4.18062 h 2.8912963 c 1.0802131,0 5.3594211,-1.44915 7.8103763,-8.06152 z"
         style="color:#000000;clip-rule:nonzero;display:inline;overflow:visible;visibility:visible;opacity:1;isolation:auto;mix-blend-mode:normal;color-interpolation:sRGB;color-interpolation-filters:linearRGB;solid-color:#000000;solid-opacity:1;vector-effect:none;fill:#54b300;fill-opacity:1;fill-rule:nonzero;stroke:#c6f300;stroke-width:1.0801636;stroke-linecap:round;stroke-linejoin:round;stroke-miterlimit:4;stroke-dasharray:none;stroke-dashoffset:0;stroke-opacity:1;marker:none;color-rendering:auto;image-rendering:auto;shape-rendering:auto;text-rendering:auto;enable-background:accumulate" />
    </g>
  </g>
</svg>
